﻿Parameter,met,met-coa,met-acp,
Dry matter,,,,
Crude protein,,,,
Crude fibre,,,,
Crude fat,,,,
Ash,,,,
Insoluble ash,,,,
NDF,,,,
ADF,,,,
Lignin,,,,
Water insoluble cell walls,,,,
Starch,,,,
"Starch, enzymatic method",,,,
Total sugars,,,,
Gross energy (kcal),,,,
Gross energy (MJ),,,,
Calcium,,,,
Phosphorus,pi,,,
Phytate phosphorus,,,,
Magnesium,,,,
Potassium,,,,
Sodium,,,,
Chlorine,,,,
Sulfur,,,,
Dietary cation-anion difference,,,,
Electrolyte balance,,,,
Manganese,,,,
Zinc,,,,
Copper,,,,
Iron,,,,
Selenium,,,,
Cobalt,,,,
Molybdenum,,,,
Iodine,,,,
C6 + C8 + C10 fatty acids,dca,,,
C12:0 lauric acid,ddca,,,
C14:0 myristic acid,ttdca,,,
C16:0 palmitic acid,hdca,,,
C16:1 palmitoleic acid,hdcea,,,(9Z)-hexadec-9-enoic acid
C18:0 stearic acid,ocdca,,,
C18:1 oleic acid,elaid,,,
C18:2 linoleic acid,lnlc,,,
C18:3 linolenic acid,lnlnca,,,
C18:4 stearidonic acid,C184n3,,,
C20:0 arachidic acid,arach,,,
C20:1 eicosenoic acid,C201n9,,,
C20:4 arachidonic acid,arachd,,,
C20:5 eicosapentaenoic acid,C205n3,,,
C22:0 behenic acid,docosac,,,
C22:1 erucic acid,C221n9,,,
C22:5 docosapentaenoic acid,C225n3,,,
C22:6 docosahexaenoic acid,C226n3,,,
C24:0 lignoceric acid,ttc,,,
Fatty acids,,,,
Vitamin A,retinol,,,
Vitamin D,vitd3,,,
Vitamin E,avite1,,,
Vitamin K,,,,
Vitamin B1 thiamin,thm,,,
Vitamin B2 riboflavin,ribflv,,,
Vitamin B6 pyridoxine,pydxn,,,
Vitamin B12,,,,
Niacin,,,,
Pantothenic acid,pnto__R,,,
Folic acid,fol,,,
Biotin,btn,,,
Choline,chol,,,
Xanthophylls,,,,
UFL INRA 2018,,,,
UFV INRA 2018,,,,
PDIA INRA 2018,,,,
PDI INRA 2018,,,,
Rumen protein balance INRA 2018,,,,
Fill Unit ruminants INRA 2018,,,,
ME ruminants INRA 2018 (kcal),,,,
NE lactation ruminants INRA 2018 (kcal),,,,
NE meat production ruminants INRA 2018 (kcal),,,,
ME ruminants INRA 2018 (MJ),,,,
NE lactation ruminants INRA 2018 (MJ),,,,
NE meat production ruminants INRA 2018 (MJ),,,,
OM digestibility ruminants INRA 2018,,,,
Energy digestibility ruminants INRA 2018,,,,
N degradability ruminants INRA 2018,,,,
Starch degradability ruminants INRA 2018,,,,
DM degradability ruminants INRA 2018,,,,
Lysine ruminants INRA 2018,,,,
Threonine ruminants INRA 2018,,,,
Methionine ruminants INRA 2018,,,,
Isoleucine ruminants INRA 2018,,,,
Valine ruminants INRA 2018,,,,
Leucine ruminants INRA 2018,,,,
Phenylalanine ruminants INRA 2018,,,,
Histidine ruminants INRA 2018,,,,
Arginine ruminants INRA 2018,,,,
UFL FL1 INRA 2018,,,,
UFV FL1 INRA 2018,,,,
PDIA FL1 INRA 2018,,,,
PDI FL1 INRA 2018,,,,
Rumen protein balance FL1 INRA 2018,,,,
UFL FL4 INRA 2018,,,,
UFV FL4 INRA 2018,,,,
PDIA FL4 INRA 2018,,,,
PDI FL4 INRA 2018,,,,
Rumen protein balance FL4 INRA 2018,,,,
UFL INRA 2007,,,,
UFV INRA 2007,,,,
PDIA INRA 2007,,,,
PDIN INRA 2007,,,,
PDIE INRA 2007,,,,
ME ruminants INRA 2007 (kcal),,,,
ME ruminants INRA 2007 (MJ),,,,
OM digestibility ruminants INRA 2007,,,,
Energy digestibility ruminants INRA 2007,,,,
N digestibility ruminants,,,,
"N digestibility, intestinal, ruminants",,,,
NDF digestibility ruminants,,,,
N degradability ruminants (k=0.06),,,,
"Starch degradability, ruminants (k=0.06)",,,,
DM degradability ruminants (k=0.06),,,,
Fatty acids digestibility ruminants,,,,
Absorbable P ruminants,,,,
Absorbable Ca ruminants,,,,
Lysine ruminants INRA 2007,,,,
Threonine ruminants INRA 2007,,,,
Methionine ruminants INRA 2007,,,,
Isoleucine ruminants INRA 2007,,,,
Valine ruminants INRA 2007,,,,
Leucine ruminants INRA 2007,,,,
Phenylalanine ruminants INRA 2007,,,,
Histidine ruminants INRA 2007,,,,
Arginine ruminants INRA 2007,,,,
VEM CVB 2018,,,,
VEVI CVB 2018,,,,
DVE CVB 1991,,,,
OEB CVB 1991,,,,
DVLYS CVB 1991,,,,
DVMET CVB 1991,,,,
TDN 1x ruminants NRC 2001,,,,
DE 1x ruminants NRC 2001,,,,
NE Lactation 3x ruminants NRC 2001,,,,
NE Lactation 4x ruminants NRC 2001,,,,
NE Maintenance 3x ruminants NRC 2001,,,,
NE Gain 3x ruminants NRC 2001,,,,
EN Lactation ruminants GfE,,,,
nxP ruminants GfE,,,,
RNB ruminants GfE,,,,
DE growing pig (kcal),,,,
ME growing pig (kcal),,,,
NE growing pig (kcal),,,,
DE adult pig (kcal),,,,
ME adult pig (kcal),,,,
NE adult pig (kcal),,,,
DE growing pig (MJ),,,,
ME growing pig (MJ),,,,
NE growing pig (MJ),,,,
DE adult pig (MJ),,,,
ME adult pig (MJ),,,,
NE adult pig (MJ),,,,
Energy digestibility growing pig,,,,
Energy digestibility adult pig,,,,
OM digestibility growing pig,,,,
OM digestibility adult pig,,,,
N digestibility growing pig,,,,
N digestibility adult pig,,,,
Crude fat digestibility pig,,,,
Digestible P pig (no phytase),,,,
Digestible P pig (with phytase),,,,
AMEn cockerel (kcal),,,,
AMEn broiler (kcal),,,,
AMEn cockerel (MJ),,,,
AMEn broiler (MJ),,,,
Available P cockerel,,,,
Available P broiler,,,,
OM digestibility horse,,,,
Energy digestibility horse,,,,
Horse Forage Unit,,,,
DE rabbit (kcal),,,,
ME rabbit (kcal),,,,
DE rabbit (MJ),,,,
ME rabbit (MJ),,,,
Energy digestibility rabbit,,,,
N digestibility rabbit,,,,
DE salmonids (kcal),,,,
DE salmonids (MJ),,,,
"Energy digestibility, salmonids",,,,
N digestibility salmonids,,,,
Lysine,lys__L,,,
Threonine,thr__L,,,
Methionine,met__L,,,
Cystine,cys__L,,,
Methionine + cystine,,,,
Tryptophan,trp__L,,,
Isoleucine,ile__L,,,
Valine,val__L,,,
Leucine,leu__L,,,
Phenylalanine,phe__L,,,
Tyrosine,tyr__L,,,
Phenylalanine + tyrosine,,,,
Histidine,his__L,,,
Arginine,arg__L,,,
Alanine,ala__L,,,
Aspartic acid,asp__L,,,
Glutamic acid,glu__L,,,
Glycine,gly,,,
Serine,ser__L,,,
Proline,pro__L,,,
"Lysine, ileal standardised, pig",,,,
"Threonine, ileal standardised, pig",,,,
"Methionine, ileal standardised, pig",,,,
"Cystine, ileal standardised, pig",,,,
"Methionine + cystine, ileal standardised, pig",,,,
"Tryptophan, ileal standardised, pig",,,,
"Isoleucine, ileal standardised, pig",,,,
"Valine, ileal standardised, pig",,,,
"Leucine, ileal standardised, pig",,,,
"Phenylalanine, ileal standardised, pig",,,,
"Tyrosine, ileal standardised, pig",,,,
"Phenylananine + tyrosine, ileal standardised, pig",,,,
"Histidine, ileal standardised, pig",,,,
"Arginine, ileal standardised, pig",,,,
"Alanine, ileal standardised, pig",,,,
"Aspartic acid, ileal standardised, pig",,,,
"Glutamic acid, ileal standardised, pig",,,,
"Glycine, ileal standardised, pig",,,,
"Serine, ileal standardised, pig",,,,
"Proline, ileal standardised, pig",,,,
"Lysine, ileal standardized, poultry",,,,
"Threonine, ileal standardized, poultry",,,,
"Methionine, ileal standardized, poultry",,,,
"Cystine, ileal standardized, poultry",,,,
"Methionine + cystine, ileal standardized, poultry",,,,
"Tryptophan, ileal standardized, poultry",,,,
"Isoleucine, ileal standardized, poultry",,,,
"Valine, ileal standardized, poultry",,,,
"Leucine, ileal standardized, poultry",,,,
"Phenylalanine, ileal standardized, poultry",,,,
"Tyrosine, ileal standardized, poultry",,,,
"Phenylalanine + tyrosine, ileal standardized, poultry",,,,
"Histidine, ileal standardized, poultry",,,,
"Arginine, ileal standardized, poultry",,,,
"Alanine, ileal standardized, poultry",,,,
"Aspartic acid, ileal standardized, poultry",,,,
"Glutamic acid, ileal standardized, poultry",,,,
"Glycine, ileal standardized, poultry",,,,
"Serine, ileal standardized, poultry",,,,
"Proline, ileal standardized, poultry",,,,
